module postgres

go 1.14

require (
	github.com/dgrijalva/jwt-go v3.2.0+incompatible
	github.com/go-pg/pg v8.0.7+incompatible
	github.com/gorilla/mux v1.7.4
	github.com/jinzhu/gorm v1.9.14
	github.com/niemeyer/pretty v0.0.0-20200227124842-a10e7caefd8e // indirect
	github.com/onsi/ginkgo v1.14.0 // indirect
	golang.org/x/crypto v0.0.0-20191205180655-e7c4368fe9dd
	gopkg.in/check.v1 v1.0.0-20200227125254-8fa46927fb4f // indirect
	gorm.io/driver/sqlite v1.1.3
	gorm.io/gorm v1.20.3
	mellium.im/sasl v0.2.1 // indirect
)
